me\sharkz\ultrahomes\homes\HomeManager.class
me\sharkz\ultrahomes\icons\HIcon.class
me\sharkz\ultrahomes\storage\UHStorage.class
me\sharkz\ultrahomes\homes\Home.class
me\sharkz\ultrahomes\configurations\Configuration.class
me\sharkz\ultrahomes\commands\SetHomeCommand.class
me\sharkz\ultrahomes\icons\IconManager.class
me\sharkz\ultrahomes\UH.class
me\sharkz\ultrahomes\commands\HomeCommand.class
me\sharkz\ultrahomes\commands\MainCommand.class
me\sharkz\ultrahomes\configurations\CmdConfig.class
me\sharkz\ultrahomes\configurations\IconsConfig.class
me\sharkz\ultrahomes\loaders\HIconLoader.class
me\sharkz\ultrahomes\translations\UhEn.class
me\sharkz\ultrahomes\translations\UhFr.class
me\sharkz\ultrahomes\commands\DelHomeCommand.class
